Fundamentals
…
## # A tibble: 6 x 2
##   name                       genus     
##   <chr>                      <chr>     
## 1 Cheetah                    Acinonyx  
## 2 Owl monkey                 Aotus     
## 3 Mountain beaver            Aplodontia
## 4 Greater short-tailed shrew Blarina   
## 5 Cow                        Bos       
## 6 Three-toed sloth           Bradypus

#4 Problem
msleep[c(-1,-2), c(-1,-2)] # One way

## # A tibble: 81 x 9
##    vore  order conservation sleep_total sleep_rem sleep_cycle awake
##    <chr> <chr> <chr>              <dbl>     <dbl>       <dbl> <dbl>
##  1 herbi Rode~ nt                  14.4       2.4      NA       9.6
##  2 omni  Sori~ lc                  14.9       2.3       0.133   9.1
##  3 herbi Arti~ domesticated         4         0.7       0.667  20  
##  4 herbi Pilo~ <NA>                14.4       2.2       0.767   9.6
##  5 carni Carn~ vu                   8.7       1.4       0.383  15.3
##  6 <NA>  Rode~ <NA>                 7        NA        NA      17  
##  7 carni Carn~ domesticated        10.1       2.9       0.333  13.9
##  8 herbi Arti~ lc                   3        NA        NA      21  
##  9 herbi Arti~ lc                   5.3       0.6      NA      18.7
## 10 herbi Rode~ domesticated         9.4       0.8       0.217  14.6
## # ... with 71 more rows, and 2 more variables: brainwt <dbl>, bodywt <dbl>

msleep[-1:-2, -1:-2]         # Another way

## # A tibble: 81 x 9
##    vore  order conservation sleep_total sleep_rem sleep_cycle awake
##    <chr> <chr> <chr>              <dbl>     <dbl>       <dbl> <dbl>
##  1 herbi Rode~ nt                  14.4       2.4      NA       9.6
##  2 omni  Sori~ lc                  14.9       2.3       0.133   9.1
##  3 herbi Arti~ domesticated         4         0.7       0.667  20  
##  4 herbi Pilo~ <NA>                14.4       2.2       0.767   9.6
##  5 carni Carn~ vu                   8.7       1.4       0.383  15.3
##  6 <NA>  Rode~ <NA>                 7        NA        NA      17  
##  7 carni Carn~ domesticated        10.1       2.9       0.333  13.9
##  8 herbi Arti~ lc                   3        NA        NA      21  
##  9 herbi Arti~ lc                   5.3       0.6      NA      18.7
## 10 herbi Rode~ domesticated         9.4       0.8       0.217  14.6
## # ... with 71 more rows, and 2 more variables: brainwt <dbl>, bodywt <dbl>

# 5 Problem
names(msleep)

##  [1] "name"         "genus"        "vore"         "order"       
##  [5] "conservation" "sleep_total"  "sleep_rem"    "sleep_cycle" 
##  [9] "awake"        "brainwt"      "bodywt"

msleep[, c("name", "conservation", "sleep_total")]

## # A tibble: 83 x 3
##    name                       conservation sleep_total
##    <chr>                      <chr>              <dbl>
##  1 Cheetah                    lc                  12.1
##  2 Owl monkey                 <NA>                17  
##  3 Mountain beaver            nt                  14.4
##  4 Greater short-tailed shrew lc                  14.9
##  5 Cow                        domesticated         4  
##  6 Three-toed sloth           <NA>                14.4
##  7 Northern fur seal          vu                   8.7
##  8 Vesper mouse               <NA>                 7  
##  9 Dog                        domesticated        10.1
## 10 Roe deer                   lc                   3  
## # ... with 73 more rows
…
## [1] FALSE FALSE FALSE  TRUE

Since is.na() provides us a logical vector, we can combine it with which() to find out where the missing values are located. For instance, we may want to know which animals are missing REM sleep times in the msleep dataset.

which(is.na(msleep$sleep_rem))  # For which rows in msleep are animals missing data; i.e., is.na is TRUE

##  [1]  1  8 10 21 27 36 41 44 45 47 51 52 53 56 57 60 65 70 75 76 80 82

This returns a vector of row indexes which we can throw directly into a subset, perhaps only pulling out the names to see which animals are missing data.

msleep[which(is.na(msleep$sleep_rem)), "name"]

## # A tibble: 22 x 1
##    name                      
##    <chr>                     
##  1 Cheetah                   
##  2 Vesper mouse              
##  3 Roe deer                  
##  4 Asian elephant            
##  5 Western american chipmunk 
##  6 African elephant          
##  7 "Vole "                   
##  8 Round-tailed muskrat      
##  9 Slow loris                
## 10 Northern grasshopper mouse
## # ... with 12 more rows
…
Exercise - Logical Subsetting and Missing Values

Retain only the animals who sleep longer than they are awake.

Retain only animals who are carnivores and sleep more than 12 hours a day.

PUll out just the names of the animals who sleep the heaviest, either in terms of longest rem (more than 3 hours) or number of hours (more than 14). Bonus: subset in a way which does not return NA values.

Eliminate any animal with missing sleep_cycle data.

# Solution 1
msleep[msleep$sleep_total > msleep$awake, ]

## # A tibble: 31 x 11
##    name  genus vore  order conservation sleep_total sleep_rem sleep_cycle
##    <chr> <chr> <chr> <chr> <chr>              <dbl>     <dbl>       <dbl>
##  1 Chee~ Acin~ carni Carn~ lc                  12.1      NA        NA    
##  2 Owl ~ Aotus omni  Prim~ <NA>                17         1.8      NA    
##  3 Moun~ Aplo~ herbi Rode~ nt                  14.4       2.4      NA    
##  4 Grea~ Blar~ omni  Sori~ lc                  14.9       2.3       0.133
##  5 Thre~ Brad~ herbi Pilo~ <NA>                14.4       2.2       0.767
##  6 Chin~ Chin~ herbi Rode~ domesticated        12.5       1.5       0.117
##  7 Long~ Dasy~ carni Cing~ lc                  17.4       3.1       0.383
##  8 Nort~ Dide~ omni  Dide~ lc                  18         4.9       0.333
##  9 Big ~ Epte~ inse~ Chir~ lc                  19.7       3.9       0.117
## 10 West~ Euta~ herbi Rode~ <NA>                14.9      NA        NA    
## # ... with 21 more rows, and 3 more variables: awake <dbl>, brainwt <dbl>,
## #   bodywt <dbl>
…
# Solution 3
msleep[msleep$sleep_rem > 3 | msleep$sleep_total > 14, "name"]

## # A tibble: 39 x 1
##    name                      
##    <chr>                     
##  1 <NA>                      
##  2 Owl monkey                
##  3 Mountain beaver           
##  4 Greater short-tailed shrew
##  5 Three-toed sloth          
##  6 <NA>                      
##  7 <NA>                      
##  8 Long-nosed armadillo      
##  9 North American Opossum    
## 10 <NA>                      
## # ... with 29 more rows

# Bonus
msleep[which(msleep$sleep_rem > 3 | msleep$sleep_total > 14), "name"]  # wrap condition in which test which returns only row number matching condition

## # A tibble: 23 x 1
##    name                      
##    <chr>                     
##  1 Owl monkey                
##  2 Mountain beaver           
##  3 Greater short-tailed shrew
##  4 Three-toed sloth          
##  5 Long-nosed armadillo      
##  6 North American Opossum    
##  7 Big brown bat             
##  8 European hedgehog         
##  9 Western american chipmunk 
## 10 Domestic cat              
## # ... with 13 more rows

# Solution 4
msleep[!is.na(msleep$sleep_cycle), ]

## # A tibble: 32 x 11
##    name  genus vore  order conservation sleep_total sleep_rem sleep_cycle
##    <chr> <chr> <chr> <chr> <chr>              <dbl>     <dbl>       <dbl>
##  1 Grea~ Blar~ omni  Sori~ lc                  14.9       2.3       0.133
##  2 Cow   Bos   herbi Arti~ domesticated         4         0.7       0.667
##  3 Thre~ Brad~ herbi Pilo~ <NA>                14.4       2.2       0.767
##  4 Nort~ Call~ carni Carn~ vu                   8.7       1.4       0.383
##  5 Dog   Canis carni Carn~ domesticated        10.1       2.9       0.333
##  6 Guin~ Cavis herbi Rode~ domesticated         9.4       0.8       0.217
##  7 Chin~ Chin~ herbi Rode~ domesticated        12.5       1.5       0.117
##  8 Less~ Cryp~ omni  Sori~ lc                   9.1       1.4       0.15 
##  9 Long~ Dasy~ carni Cing~ lc                  17.4       3.1       0.383
## 10 Nort~ Dide~ omni  Dide~ lc                  18         4.9       0.333
## # ... with 22 more rows, and 3 more variables: awake <dbl>, brainwt <dbl>,
## #   bodywt <dbl>
…
